{
   "version":"1.0",
   "envConfig":{
      "target_apigee_env":{
         "targetServers":[
            {
               "name":"HTTPBin",
               "host":"httpbin.org",
               "isEnabled":true,
               "port":80
            }
         ],
         "virtualHosts":[],
         "references":[],
         "caches":[],
         "resourcefiles":[],
         "flowhooks":[],
         "extensions":[],
         "keystores":[],
         "aliases":[]
      }
   },
   "orgConfig":{
      "specs":[],
      "apiProducts":[],
      "userroles":[],
      "reports":[],
      "developers":[],
      "developerApps":{},
      "importKeys":{}
   }
}